[
    {
        "key": "group_593609a8e5812",
        "title": "Showcase Page",
        "fields": [
            {
                "key": "field_593609b2534a1",
                "label": "Title",
                "name": "showcase_page_title",
                "type": "text",
                "instructions": "",
                "required": 0,
                "conditional_logic": 0,
                "wrapper": {
                    "width": "",
                    "class": "",
                    "id": ""
                },
                "default_value": "",
                "placeholder": "",
                "prepend": "",
                "append": "",
                "maxlength": ""
            },
            {
                "key": "field_593609ef534a2",
                "label": "Showcase Blocks",
                "name": "",
                "type": "tab",
                "instructions": "",
                "required": 0,
                "conditional_logic": 0,
                "wrapper": {
                    "width": "",
                    "class": "",
                    "id": ""
                },
                "placement": "top",
                "endpoint": 0
            },
            {
                "key": "field_59360a06534a3",
                "label": "Showcase Block",
                "name": "showcase_page_repeater",
                "type": "repeater",
                "instructions": "",
                "required": 0,
                "conditional_logic": 0,
                "wrapper": {
                    "width": "",
                    "class": "",
                    "id": ""
                },
                "collapsed": "field_59360a63534a5",
                "min": 4,
                "max": 4,
                "layout": "block",
                "button_label": "",
                "sub_fields": [
                    {
                        "key": "field_59360a2d534a4",
                        "label": "Image",
                        "name": "showcase_page_repeater_image",
                        "type": "image",
                        "instructions": "",
                        "required": 1,
                        "conditional_logic": 0,
                        "wrapper": {
                            "width": "",
                            "class": "",
                            "id": ""
                        },
                        "return_format": "array",
                        "preview_size": "tcu-320-320",
                        "library": "all",
                        "min_width": "",
                        "min_height": "",
                        "min_size": "",
                        "max_width": "",
                        "max_height": "",
                        "max_size": "",
                        "mime_types": ""
                    },
                    {
                        "key": "field_59360a63534a5",
                        "label": "Title",
                        "name": "showcase_page_repeater_title",
                        "type": "text",
                        "instructions": "",
                        "required": 0,
                        "conditional_logic": 0,
                        "wrapper": {
                            "width": "",
                            "class": "",
                            "id": ""
                        },
                        "default_value": "",
                        "placeholder": "",
                        "prepend": "",
                        "append": "",
                        "maxlength": ""
                    },
                    {
                        "key": "field_59360a78534a6",
                        "label": "Content",
                        "name": "showcase_page_repeater_content",
                        "type": "textarea",
                        "instructions": "",
                        "required": 1,
                        "conditional_logic": 0,
                        "wrapper": {
                            "width": "",
                            "class": "",
                            "id": ""
                        },
                        "default_value": "",
                        "placeholder": "",
                        "maxlength": "",
                        "rows": "",
                        "new_lines": ""
                    },
                    {
                        "key": "field_59360a97534a7",
                        "label": "Link Text",
                        "name": "showcase_page_repeater_link_text",
                        "type": "text",
                        "instructions": "",
                        "required": 0,
                        "conditional_logic": 0,
                        "wrapper": {
                            "width": "",
                            "class": "",
                            "id": ""
                        },
                        "default_value": "",
                        "placeholder": "",
                        "prepend": "",
                        "append": "",
                        "maxlength": ""
                    },
                    {
                        "key": "field_59360aaa534a8",
                        "label": "URL",
                        "name": "showcase_page_repeater_url",
                        "type": "url",
                        "instructions": "",
                        "required": 0,
                        "conditional_logic": 0,
                        "wrapper": {
                            "width": "",
                            "class": "",
                            "id": ""
                        },
                        "default_value": "",
                        "placeholder": ""
                    },
                    {
                        "key": "field_597a0d9bbdacd",
                        "label": "Aria-label",
                        "name": "showcase_page_repeater_aria_label",
                        "type": "text",
                        "instructions": "The objective is to describe the purpose of the link. Example: Read more about Seminole's new baby mayor. <a targe=\"_blank\" href=\"https:\/\/www.w3.org\/TR\/WCAG20-TECHS\/ARIA8\">Read more about the correct way to implement the aria-label<\/a>",
                        "required": 0,
                        "conditional_logic": 0,
                        "wrapper": {
                            "width": "",
                            "class": "",
                            "id": ""
                        },
                        "default_value": "",
                        "placeholder": "",
                        "prepend": "",
                        "append": "",
                        "maxlength": ""
                    }
                ]
            }
        ],
        "location": [
            [
                {
                    "param": "page_template",
                    "operator": "==",
                    "value": "page-showcase.php"
                }
            ]
        ],
        "menu_order": 0,
        "position": "acf_after_title",
        "style": "default",
        "label_placement": "top",
        "instruction_placement": "label",
        "hide_on_screen": "",
        "active": 1,
        "description": ""
    }
]